AGE,STRABIS,raceg,newage6g,eso_exo,C1
24,0,2,3,0,0
33,0,2,3,0,0
34,0,3,3,0,0
35,0,3,3,0,0
29,0,3,3,0,0
32,0,3,3,0,0
32,0,3,3,0,0
35,0,2,3,0,0
31,0,3,3,0,0
34,0,2,3,0,0
31,0,2,3,0,0
28,0,2,3,0,0
34,0,2,3,0,0
35,0,3,3,0,0
34,0,2,3,0,0
31,0,3,3,0,0
34,0,3,3,0,0
31,0,2,3,0,0
35,0,2,3,0,0
34,0,2,3,0,0
34,0,2,3,0,0
25,0,2,3,0,0
26,0,3,3,0,0
31,0,2,3,0,0
31,0,2,3,0,0
35,0,3,3,0,0
33,0,2,3,0,0
35,0,2,3,0,0
24,0,2,3,0,0
31,0,2,3,0,0
35,0,3,3,0,0
32,0,3,3,0,1
34,0,2,3,0,0
32,0,2,3,0,0
25,0,3,3,0,0
32,0,2,3,0,1
30,0,3,3,0,0
25,0,2,3,0,0
27,0,3,3,0,0
29,0,3,3,0,0
31,0,2,3,0,0
26,0,3,3,0,0
26,0,3,3,0,0
28,0,2,3,0,0
34,0,2,3,0,0
26,0,2,3,0,0
31,0,2,3,0,0
31,0,2,3,0,0
34,0,2,3,0,0
29,0,2,3,0,0
24,0,2,3,0,0
29,0,2,3,0,0
35,0,2,3,0,0
27,0,2,3,0,0
25,0,2,3,0,0
25,0,3,3,0,0
34,0,2,3,0,0
31,0,2,3,0,0
28,0,2,3,0,0
25,0,2,3,0,0
32,0,2,3,0,0
34,0,3,3,0,0
26,0,2,3,0,0
28,0,2,3,0,0
31,0,2,3,0,0
33,0,2,3,0,0
24,0,2,3,0,0
29,0,2,3,0,0
24,0,2,3,0,0
27,0,3,3,0,0
32,0,3,3,0,0
35,0,2,3,0,0
26,0,2,3,0,0
28,0,3,3,0,0
31,0,2,3,0,0
32,0,3,3,0,0
27,0,2,3,0,0
31,0,3,3,0,0
25,0,3,3,0,0
27,0,2,3,0,0
33,0,2,3,0,0
29,0,2,3,0,0
28,0,2,3,0,0
32,0,2,3,0,0
27,0,2,3,0,0
34,0,2,3,0,0
32,0,2,3,0,0
30,0,2,3,0,0
30,0,2,3,0,1
24,0,2,3,0,0
31,0,2,3,0,0
33,0,3,3,0,0
27,0,2,3,0,0
28,0,2,3,0,0
31,0,2,3,0,0
28,0,2,3,0,0
31,0,2,3,0,0
33,0,2,3,0,0
35,0,2,3,0,0
27,0,2,3,0,0
30,0,2,3,0,0
30,0,2,3,0,0
28,0,3,3,0,0
34,0,3,3,0,0
30,0,2,3,0,0
28,0,2,3,0,0
26,0,2,3,0,0
27,0,2,3,0,0
26,0,2,3,0,0
32,0,2,3,0,0
33,0,2,3,0,0
30,0,2,3,0,1
33,0,2,3,0,1
25,0,2,3,0,0
27,0,3,3,0,0
32,0,2,3,0,0
33,0,4,3,0,0
27,0,2,3,0,0
35,0,2,3,0,0
25,0,3,3,0,0
28,0,3,3,0,0
27,0,2,3,0,0
32,0,3,3,0,0
32,0,1,3,0,0
32,0,3,3,0,0
31,0,3,3,0,0
28,0,3,3,0,0
25,0,2,3,0,0
33,0,2,3,0,0
35,0,2,3,0,0
32,0,2,3,0,0
25,0,3,3,0,0
27,0,2,3,0,0
30,0,3,3,0,1
34,0,2,3,0,0
34,0,2,3,0,0
25,0,2,3,0,0
32,0,3,3,0,0
27,0,3,3,0,0
24,0,2,3,0,0
26,0,2,3,0,0
32,0,3,3,0,0
35,0,3,3,0,0
26,1,3,3,,0
26,0,2,3,0,0
35,0,2,3,0,0
33,0,2,3,0,0
32,0,3,3,0,0
25,0,2,3,0,0
34,0,3,3,0,0
34,0,2,3,0,0
33,0,2,3,0,0
28,0,2,3,0,0
26,0,2,3,0,0
25,0,2,3,0,0
29,0,2,3,0,0
28,0,2,3,0,0
28,0,2,3,0,0
26,0,2,3,0,0
33,0,3,3,0,0
35,0,2,3,0,0
27,0,3,3,0,0
26,0,2,3,0,0
33,0,2,3,0,0
35,0,2,3,0,0
33,0,2,3,0,0
35,0,3,3,0,0
34,0,2,3,0,0
32,0,2,3,0,0
28,0,2,3,0,0
28,0,3,3,0,1
33,0,2,3,0,0
28,0,2,3,0,0
32,0,3,3,0,0
25,0,2,3,0,0
33,0,2,3,0,0
29,0,2,3,0,0
24,0,2,3,0,0
35,0,3,3,0,0
28,0,2,3,0,0
33,0,3,3,0,0
26,0,3,3,0,0
29,0,3,3,0,0
35,0,2,3,0,0
25,0,2,3,0,0
26,0,3,3,0,0
31,0,3,3,0,0
31,0,3,3,0,0
28,0,3,3,0,0
28,0,2,3,0,0
32,0,3,3,0,0
28,0,3,3,0,0
27,0,3,3,0,0
33,0,3,3,0,0
35,0,2,3,0,0
30,1,3,3,,0
24,0,2,3,0,0
31,0,3,3,0,0
24,0,3,3,0,0
32,0,2,3,0,0
27,0,3,3,0,0
29,0,3,3,0,0
26,0,2,3,0,0
26,0,2,3,0,0
24,0,3,3,0,0
29,0,3,3,0,0
31,0,2,3,0,0
30,0,2,3,0,0
34,0,2,3,0,0
27,0,2,3,0,0
31,0,2,3,0,0
29,0,3,3,0,0
35,0,3,3,0,0
33,0,3,3,0,0
34,0,2,3,0,0
31,0,2,3,0,0
26,0,3,3,0,0
35,0,2,3,0,0
31,0,2,3,0,0
26,0,2,3,0,0
30,0,2,3,0,0
28,0,2,3,0,0
28,0,2,3,0,0
28,0,2,3,0,0
34,0,2,3,0,0
34,0,2,3,0,0
31,0,2,3,0,0
25,0,3,3,0,0
30,0,2,3,0,0
30,0,2,3,0,0
34,0,2,3,0,0
27,0,2,3,0,0
29,0,3,3,0,0
32,0,2,3,0,1
27,0,2,3,0,0
27,0,3,3,0,0
29,0,2,3,0,0
26,0,3,3,0,0
33,0,3,3,0,0
27,0,3,3,0,0
32,0,3,3,0,0
27,0,2,3,0,1
24,0,2,3,0,0
35,0,2,3,0,0
32,0,2,3,0,0
25,0,2,3,0,0
33,0,2,3,0,0
34,0,3,3,0,0
27,0,3,3,0,0
31,0,2,3,0,0
27,0,2,3,0,0
29,1,2,3,,0
29,0,2,3,0,0
30,0,2,3,0,0
24,0,2,3,0,0
33,0,2,3,0,0
33,0,2,3,0,0
29,0,2,3,0,0
31,0,2,3,0,0
34,0,2,3,0,0
24,0,3,3,0,0
25,0,3,3,0,0
32,0,2,3,0,0
35,0,2,3,0,0
35,0,2,3,0,0
29,0,2,3,0,0
26,0,3,3,0,0
32,0,2,3,0,0
24,0,2,3,0,0
35,0,3,3,0,0
25,0,3,3,0,0
25,0,2,3,0,0
26,0,2,3,0,0
29,0,2,3,0,0
31,0,4,3,0,0
26,0,2,3,0,0
31,0,2,3,0,0
35,0,2,3,0,0
34,0,2,3,0,0
25,0,2,3,0,0
33,0,2,3,0,0
35,0,3,3,0,0
32,0,2,3,0,0
26,0,2,3,0,0
24,0,2,3,0,0
35,0,2,3,0,0
25,0,3,3,0,0
25,0,2,3,0,0
32,0,3,3,0,1
26,1,3,3,,0
32,0,2,3,0,0
35,0,3,3,0,0
34,0,3,3,0,0
29,0,2,3,0,0
24,0,2,3,0,0
34,0,2,3,0,1
26,0,3,3,0,0
25,0,3,3,0,0
33,0,3,3,0,0
24,0,2,3,0,0
31,0,2,3,0,0
33,0,4,3,0,0
25,0,2,3,0,0
35,0,2,3,0,0
35,0,2,3,0,0
24,0,2,3,0,0
26,0,2,3,0,0
34,0,2,3,0,0
27,0,4,3,0,0
32,0,2,3,0,0
29,0,2,3,0,0
30,0,2,3,0,0
24,0,2,3,0,0
33,0,2,3,0,0
28,0,2,3,0,0
29,0,3,3,0,0
31,0,2,3,0,0
34,0,2,3,0,0
35,0,3,3,0,0
28,0,2,3,0,0
27,0,2,3,0,0
27,0,2,3,0,0
29,0,3,3,0,0
31,0,3,3,0,0
27,0,3,3,0,0
29,0,3,3,0,0
30,0,3,3,0,0
29,0,3,3,0,0
30,0,3,3,0,0
31,0,3,3,0,1
30,0,2,3,0,0
32,0,2,3,0,0
31,0,2,3,0,0
32,0,3,3,0,0
35,0,3,3,0,0
24,0,3,3,0,0
35,0,2,3,0,0
26,0,3,3,0,0
26,0,3,3,0,0
26,0,2,3,0,0
24,0,2,3,0,0
33,0,2,3,0,0
24,0,2,3,0,0
35,0,2,3,0,0
29,0,2,3,0,0
33,0,2,3,0,0
35,0,3,3,0,0
35,0,3,3,0,0
24,0,3,3,0,0
24,0,3,3,0,0
29,0,3,3,0,0
28,0,3,3,0,0
24,0,2,3,0,0
34,0,3,3,0,0
25,0,3,3,0,0
26,0,3,3,0,0
26,0,2,3,0,0
28,0,3,3,0,0
28,0,2,3,0,0
30,0,2,3,0,0
33,0,2,3,0,0
24,0,2,3,0,0
31,0,2,3,0,0
24,0,2,3,0,0
26,0,2,3,0,0
30,0,3,3,0,1
30,0,2,3,0,0
31,0,3,3,0,0
35,0,2,3,0,0
31,1,3,3,,0
35,0,2,3,0,0
28,0,3,3,0,0
27,0,3,3,0,0
34,0,2,3,0,0
34,0,2,3,0,0
33,0,2,3,0,0
26,0,3,3,0,0
33,0,2,3,0,0
29,0,2,3,0,0
35,0,2,3,0,0
35,0,2,3,0,0
31,0,3,3,0,0
30,0,2,3,0,0
28,0,2,3,0,0
35,0,2,3,0,0
29,0,2,3,0,0
25,0,2,3,0,0
28,0,2,3,0,0
32,0,2,3,0,0
27,0,3,3,0,0
35,0,3,3,0,0
27,0,3,3,0,0
33,0,2,3,0,0
32,0,3,3,0,0
25,0,2,3,0,0
33,0,2,3,0,0
26,0,3,3,0,0
24,0,2,3,0,0
30,0,2,3,0,0
32,0,3,3,0,1
31,0,2,3,0,0
25,0,2,3,0,0
29,0,2,3,0,0
29,0,2,3,0,0
28,0,2,3,0,0
26,0,2,3,0,1
26,0,2,3,0,0
25,0,2,3,0,0
33,0,3,3,0,0
30,0,3,3,0,0
31,0,3,3,0,0
27,0,3,3,0,0
29,0,3,3,0,0
33,0,2,3,0,0
27,0,3,3,0,0
27,0,2,3,0,0
29,0,2,3,0,0
29,0,3,3,0,0
35,0,3,3,0,0
28,0,4,3,0,0
26,1,3,3,,0
27,0,2,3,0,0
25,0,3,3,0,0
31,1,3,3,,1
25,0,3,3,0,0
33,0,3,3,0,1
24,0,3,3,0,0
30,0,3,3,0,0
30,0,3,3,0,0
33,0,3,3,0,0
31,0,1,3,0,0
33,0,3,3,0,1
30,0,3,3,0,0
35,0,2,3,0,0
27,0,3,3,0,0
31,0,3,3,0,0
32,0,3,3,0,0
28,0,3,3,0,0
25,0,3,3,0,0
35,0,3,3,0,0
33,0,3,3,0,0
34,0,3,3,0,0
32,0,3,3,0,0
35,0,2,3,0,0
32,0,3,3,0,1
33,0,3,3,0,1
29,0,2,3,0,0
29,0,3,3,0,0
33,0,2,3,0,0
26,0,3,3,0,0
32,0,2,3,0,0
34,0,3,3,0,1
27,0,3,3,0,0
27,0,3,3,0,0
25,0,2,3,0,0
29,0,3,3,0,1
24,0,3,3,0,0
29,0,2,3,0,0
27,0,2,3,0,0
34,0,3,3,0,0
27,0,3,3,0,0
31,0,3,3,0,0
30,0,3,3,0,0
31,0,2,3,0,0
33,0,2,3,0,0
25,0,2,3,0,0
26,0,2,3,0,0
33,0,2,3,0,0
33,0,2,3,0,0
24,0,2,3,0,0
33,0,2,3,0,0
30,0,3,3,0,0
29,0,3,3,0,0
25,0,3,3,0,0
32,0,3,3,0,0
35,0,3,3,0,0
26,0,2,3,0,0
25,0,3,3,0,0
27,0,2,3,0,0
34,0,3,3,0,0
35,0,3,3,0,0
35,0,3,3,0,0
27,0,3,3,0,1
25,0,3,3,0,0
26,0,2,3,0,0
33,0,3,3,0,0
27,0,3,3,0,0
30,0,2,3,0,0
27,0,2,3,0,0
26,0,3,3,0,0
28,0,3,3,0,0
31,0,3,3,0,0
32,0,3,3,0,0
34,0,3,3,0,0
32,0,1,3,0,0
24,0,3,3,0,0
25,0,2,3,0,0
29,0,2,3,0,0
27,0,3,3,0,1
24,0,3,3,0,0
25,0,3,3,0,0
26,0,3,3,0,0
26,0,3,3,0,0
35,0,2,3,0,0
28,0,3,3,0,0
33,0,3,3,0,0
32,0,3,3,0,0
31,0,3,3,0,1
31,0,3,3,0,0
29,0,3,3,0,0
25,0,2,3,0,0
33,0,3,3,0,0
33,0,3,3,0,0
31,0,3,3,0,0
35,0,3,3,0,0
31,0,3,3,0,0
29,0,3,3,0,0
24,0,3,3,0,0
35,0,3,3,0,0
30,0,2,3,0,0
26,0,3,3,0,0
24,0,3,3,0,0
34,0,3,3,0,0
26,0,3,3,0,0
32,0,3,3,0,0
31,0,3,3,0,0
34,0,3,3,0,0
33,0,3,3,0,0
33,0,2,3,0,0
34,0,3,3,0,0
35,0,2,3,0,0
30,0,3,3,0,0
27,0,2,3,0,0
31,0,2,3,0,0
25,0,2,3,0,0
26,0,3,3,0,0
34,0,3,3,0,0
32,0,3,3,0,0
29,0,3,3,0,0
30,0,3,3,0,0
24,0,3,3,0,0
25,0,3,3,0,0
28,0,3,3,0,0
25,0,2,3,0,0
26,0,2,3,0,0
33,0,1,3,0,0
31,0,2,3,0,0
25,0,3,3,0,0
35,0,3,3,0,0
26,0,2,3,0,0
26,0,2,3,0,0
30,0,2,3,0,0
33,0,2,3,0,0
33,0,2,3,0,0
25,0,3,3,0,1
26,0,2,3,0,0
35,0,2,3,0,0
28,0,3,3,0,0
33,0,2,3,0,1
34,0,3,3,0,0
29,0,2,3,0,0
34,0,3,3,0,0
26,0,2,3,0,0
28,0,3,3,0,0
34,0,2,3,0,0
32,0,2,3,0,0
27,0,3,3,0,0
33,0,3,3,0,0
24,0,3,3,0,1
30,1,3,3,,0
30,0,1,3,0,0
27,0,2,3,0,0
33,0,1,3,0,0
28,0,2,3,0,0
29,0,2,3,0,0
24,0,3,3,0,0
24,0,2,3,0,0
31,0,2,3,0,0
34,0,3,3,0,1
24,0,2,3,0,0
24,0,3,3,0,0
27,0,3,3,0,0
24,0,3,3,0,0
33,0,3,3,0,0
24,0,3,3,0,0
33,0,3,3,0,0
34,0,3,3,0,0
25,0,3,3,0,0
32,0,3,3,0,0
33,0,3,3,0,0
30,0,3,3,0,0
30,0,3,3,0,0
33,0,3,3,0,0
32,0,3,3,0,0
29,0,3,3,0,0
34,0,3,3,0,0
35,0,3,3,0,0
25,0,3,3,0,0
30,0,3,3,0,0
33,0,3,3,0,0
25,0,3,3,0,1
25,0,3,3,0,0
34,0,3,3,0,0
26,0,3,3,0,0
24,0,2,3,0,0
33,1,2,3,,0
29,0,3,3,0,0
32,0,3,3,0,0
33,0,2,3,0,0
28,0,3,3,0,0
30,0,3,3,0,0
25,0,2,3,0,0
34,0,2,3,0,0
34,0,3,3,0,0
28,0,3,3,0,0
29,0,3,3,0,0
35,0,2,3,0,0
24,0,2,3,0,0
29,0,2,3,0,0
27,0,2,3,0,0
28,0,3,3,0,0
27,0,3,3,0,0
33,0,3,3,0,0
27,0,2,3,0,0
32,0,2,3,0,0
32,0,2,3,0,1
34,0,3,3,0,0
31,1,3,3,,0
26,0,3,3,0,0
28,0,3,3,0,0
35,0,2,3,0,0
25,0,3,3,0,1
30,0,3,3,0,0
27,0,2,3,0,0
24,0,2,3,0,0
30,0,2,3,0,0
30,0,2,3,0,0
34,0,2,3,0,0
34,0,3,3,0,0
33,0,3,3,0,0
28,0,3,3,0,0
32,0,2,3,0,0
29,0,3,3,0,0
34,0,3,3,0,0
28,0,3,3,0,0
31,0,2,3,0,0
29,0,3,3,0,1
27,0,3,3,0,0
32,0,3,3,0,0
27,0,2,3,0,0
28,0,3,3,0,0
27,0,3,3,0,0
24,0,3,3,0,0
27,0,3,3,0,0
34,0,3,3,0,0
32,0,3,3,0,1
30,0,3,3,0,0
29,0,3,3,0,0
24,0,3,3,0,0
34,0,3,3,0,0
25,0,3,3,0,0
24,0,2,3,0,0
25,0,2,3,0,0
32,0,3,3,0,0
28,0,2,3,0,0
35,0,2,3,0,0
25,0,2,3,0,0
28,0,2,3,0,0
27,0,2,3,0,0
33,0,2,3,0,0
25,0,2,3,0,0
32,0,2,3,0,0
27,0,2,3,0,0
31,0,2,3,0,0
33,0,3,3,0,0
32,0,2,3,0,0
31,0,2,3,0,0
29,0,2,3,0,0
29,0,2,3,0,0
33,0,2,3,0,0
35,0,3,3,0,0
32,0,3,3,0,0
31,0,3,3,0,0
33,0,2,3,0,0
29,0,2,3,0,0
26,0,2,3,0,0
24,0,2,3,0,0
35,0,3,3,0,0
35,0,3,3,0,0
32,0,2,3,0,1
34,0,2,3,0,0
32,0,2,3,0,0
30,0,3,3,0,0
33,0,2,3,0,0
32,0,2,3,0,0
31,0,3,3,0,0
24,0,3,3,0,0
32,0,3,3,0,0
32,0,3,3,0,0
35,0,3,3,0,0
35,0,3,3,0,0
34,0,2,3,0,0
34,0,2,3,0,0
24,0,2,3,0,0
32,0,2,3,0,0
25,0,3,3,0,0
33,0,2,3,0,0
32,0,2,3,0,0
32,0,2,3,0,0
29,0,2,3,0,0
33,1,2,3,,0
34,0,2,3,0,0
35,0,3,3,0,0
26,0,2,3,0,0
24,0,2,3,0,0
33,0,2,3,0,0
26,0,2,3,0,0
30,0,3,3,0,1
34,0,2,3,0,0
28,0,2,3,0,0
32,0,3,3,0,0
32,0,3,3,0,1
26,0,2,3,0,0
28,0,2,3,0,0
35,0,3,3,0,0
25,0,2,3,0,0
28,0,2,3,0,0
31,0,2,3,0,0
29,0,2,3,0,0
32,0,2,3,0,0
30,0,2,3,0,0
25,0,2,3,0,0
33,0,2,3,0,0
25,0,3,3,0,0
30,0,3,3,0,0
27,0,2,3,0,0
31,0,3,3,0,1
28,0,3,3,0,0
28,0,2,3,0,0
31,1,3,3,,0
28,0,2,3,0,0
30,0,2,3,0,0
27,0,3,3,0,0
25,0,2,3,0,0
33,0,2,3,0,0
28,0,2,3,0,0
29,0,2,3,0,0
26,0,2,3,0,0
26,0,2,3,0,0
32,0,2,3,0,0
35,0,3,3,0,0
29,0,3,3,0,0
29,0,3,3,0,0
34,0,2,3,0,0
32,0,2,3,0,0
25,0,2,3,0,0
31,0,3,3,0,0
30,0,2,3,0,0
32,0,3,3,0,1
31,0,2,3,0,0
30,1,2,3,,0
33,0,2,3,0,0
30,0,2,3,0,0
28,0,2,3,0,0
34,0,2,3,0,0
34,0,2,3,0,0
26,0,3,3,0,0
24,0,3,3,0,0
33,0,2,3,0,0
25,0,2,3,0,0
33,0,2,3,0,0
25,0,2,3,0,0
32,0,2,3,0,0
29,0,2,3,0,0
29,0,2,3,0,0
24,0,2,3,0,0
26,0,2,3,0,0
24,0,3,3,0,0
32,0,2,3,0,0
29,0,3,3,0,1
30,0,2,3,0,0
35,0,3,3,0,0
32,0,3,3,0,0
29,0,2,3,0,0
24,0,2,3,0,0
32,0,3,3,0,1
26,0,3,3,0,0
35,0,2,3,0,0
25,0,3,3,0,0
28,0,3,3,0,0
33,0,3,3,0,0
34,0,3,3,0,0
30,0,2,3,0,0
27,0,2,3,0,0
26,0,2,3,0,0
31,0,2,3,0,0
25,0,2,3,0,0
31,0,2,3,0,0
28,0,2,3,0,0
24,0,2,3,0,0
29,0,2,3,0,0
31,0,3,3,0,0
31,0,2,3,0,0
31,0,3,3,0,0
32,0,3,3,0,0
28,0,2,3,0,0
25,0,3,3,0,0
27,0,2,3,0,0
26,0,2,3,0,0
28,0,3,3,0,0
28,0,3,3,0,0
34,0,2,3,0,0
33,0,3,3,0,0
33,0,3,3,0,0
32,0,2,3,0,0
31,0,2,3,0,0
33,0,3,3,0,0
29,0,2,3,0,0
26,0,2,3,0,0
27,0,3,3,0,0
24,0,3,3,0,0
35,0,3,3,0,0
35,0,3,3,0,0
24,0,3,3,0,0
32,0,2,3,0,0
25,0,2,3,0,0
35,0,2,3,0,1
35,0,2,3,0,0
32,0,2,3,0,0
32,0,2,3,0,0
35,0,2,3,0,0
28,0,2,3,0,0
32,0,2,3,0,0
35,0,3,3,0,0
34,0,2,3,0,0
29,0,2,3,0,0
32,0,3,3,0,0
32,0,2,3,0,0
28,0,2,3,0,0
30,0,3,3,0,0
28,0,3,3,0,0
27,0,3,3,0,0
35,1,3,3,,0
35,0,3,3,0,0
28,0,3,3,0,0
35,0,3,3,0,0
28,1,3,3,,0
26,0,2,3,0,0
32,0,2,3,0,0
35,0,2,3,0,0
35,0,2,3,0,0
28,0,3,3,0,0
30,0,2,3,0,0
29,0,2,3,0,0
34,0,2,3,0,0
27,0,2,3,0,0
29,0,2,3,0,0
33,0,2,3,0,0
34,0,2,3,0,0
24,0,2,3,0,0
28,0,2,3,0,0
32,0,2,3,0,0
33,0,2,3,0,0
30,0,2,3,0,0
31,0,2,3,0,0
25,0,2,3,0,0
31,0,3,3,0,0
35,0,3,3,0,0
25,0,2,3,0,0
24,0,2,3,0,0
32,0,2,3,0,0
24,0,3,3,0,0
27,0,2,3,0,0
29,0,3,3,0,0
30,0,2,3,0,0
29,0,2,3,0,0
26,0,2,3,0,0
26,0,2,3,0,0
24,0,3,3,0,0
28,0,3,3,0,0
30,0,3,3,0,0
34,0,2,3,0,0
32,0,3,3,0,0
25,0,3,3,0,1
30,0,3,3,0,0
28,0,3,3,0,0
33,0,2,3,0,0
26,0,2,3,0,0
29,0,3,3,0,0
25,0,3,3,0,0
28,0,2,3,0,0
30,0,3,3,0,0
27,0,3,3,0,0
24,0,2,3,0,0
27,0,2,3,0,0
27,0,3,3,0,0
26,0,3,3,0,0
31,0,2,3,0,0
29,0,2,3,0,0
28,0,3,3,0,1
33,0,2,3,0,0
26,0,3,3,0,0
26,0,1,3,0,0
27,0,3,3,0,1
29,0,2,3,0,0
25,0,2,3,0,0
33,0,3,3,0,0
27,0,3,3,0,0
31,0,3,3,0,1
25,0,2,3,0,0
32,0,2,3,0,0
31,0,2,3,0,0
29,0,3,3,0,0
28,0,3,3,0,0
24,0,2,3,0,0
35,0,2,3,0,0
31,0,3,3,0,0
32,0,2,3,0,0
32,0,3,3,0,0
28,0,3,3,0,0
34,0,3,3,0,0
34,0,2,3,0,0
24,0,2,3,0,0
26,1,2,3,,0
32,0,2,3,0,1
35,0,3,3,0,0
33,0,5,3,0,0
31,0,3,3,0,0
34,0,3,3,0,1
28,0,2,3,0,0
34,0,3,3,0,0
26,0,3,3,0,0
33,0,3,3,0,1
31,0,3,3,0,0
30,0,2,3,0,0
35,0,2,3,0,0
32,0,3,3,0,0
30,0,3,3,0,0
35,0,3,3,0,0
35,0,3,3,0,0
32,0,2,3,0,0
34,0,2,3,0,0
29,0,2,3,0,0
28,0,2,3,0,0
35,0,2,3,0,0
24,0,2,3,0,0
32,0,2,3,0,0
29,0,2,3,0,0
32,0,3,3,0,0
34,0,3,3,0,0
26,0,2,3,0,0
34,0,3,3,0,0
30,0,2,3,0,0
28,0,3,3,0,0
33,0,3,3,0,0
27,0,3,3,0,0
27,0,2,3,0,0
35,1,2,3,,0
31,0,3,3,0,0
34,0,3,3,0,0
34,0,3,3,0,0
29,0,2,3,0,0
31,0,2,3,0,0
26,0,4,3,0,0
27,0,2,3,0,0
31,0,2,3,0,0
29,0,2,3,0,0
25,0,3,3,0,0
27,0,2,3,0,0
29,0,2,3,0,0
27,0,2,3,0,0
35,0,3,3,0,0
28,0,3,3,0,0
26,0,3,3,0,0
28,0,3,3,0,0
28,0,3,3,0,0
28,0,2,3,0,0
34,0,2,3,0,0
29,0,3,3,0,0
29,0,3,3,0,0
32,0,2,3,0,0
28,0,2,3,0,0
27,0,3,3,0,0
27,0,3,3,0,0
31,0,3,3,0,0
26,0,3,3,0,0
30,0,3,3,0,0
33,0,2,3,0,0
29,0,2,3,0,0
24,0,3,3,0,0
28,0,3,3,0,0
28,0,3,3,0,0
30,0,3,3,0,0
31,0,3,3,0,0
34,0,3,3,0,0
32,0,2,3,0,0
25,0,3,3,0,0
28,0,3,3,0,0
31,0,3,3,0,0
29,0,3,3,0,0
28,0,2,3,0,0
33,0,3,3,0,0
24,0,3,3,0,0
32,0,3,3,0,0
35,0,3,3,0,0
24,0,2,3,0,0
30,0,3,3,0,0
35,0,2,3,0,0
25,0,3,3,0,1
30,0,3,3,0,0
34,0,3,3,0,0
32,0,3,3,0,0
32,0,3,3,0,0
34,0,3,3,0,0
33,0,2,3,0,0
35,0,2,3,0,0
33,0,3,3,0,1
34,0,2,3,0,0
32,0,2,3,0,0
29,0,2,3,0,0
30,0,3,3,0,0
24,0,3,3,0,0
31,0,3,3,0,1
34,0,2,3,0,0
27,0,3,3,0,0
25,0,3,3,0,0
25,0,3,3,0,0
34,0,3,3,0,0
35,0,3,3,0,0
28,0,3,3,0,0
33,0,2,3,0,0
27,0,3,3,0,0
30,0,3,3,0,0
27,0,2,3,0,0
29,0,3,3,0,0
32,0,2,3,0,0
32,0,2,3,0,0
27,0,2,3,0,0
28,0,2,3,0,0
26,0,3,3,0,0
29,0,2,3,0,0
26,0,2,3,0,0
28,0,2,3,0,0
35,0,3,3,0,0
28,0,3,3,0,1
25,0,2,3,0,0
31,0,2,3,0,0
24,0,2,3,0,0
33,0,1,3,0,0
31,0,4,3,0,0
30,0,1,3,0,0
27,0,1,3,0,0
34,0,1,3,0,0
29,0,1,3,0,0
26,0,1,3,0,0
32,0,1,3,0,0
30,0,1,3,0,1
28,0,4,3,0,0
28,0,1,3,0,0
31,0,1,3,0,0
30,0,1,3,0,0
34,0,1,3,0,1
28,0,1,3,0,0
30,0,3,3,0,0
29,0,4,3,0,0
34,0,2,3,0,0
34,0,1,3,0,0
27,0,1,3,0,1
29,0,1,3,0,0
24,0,1,3,0,0
35,0,1,3,0,0
35,0,1,3,0,0
32,0,3,3,0,0
33,0,1,3,0,0
32,0,1,3,0,0
26,0,1,3,0,0
34,0,1,3,0,0
27,0,1,3,0,0
27,0,1,3,0,0
26,0,4,3,0,0
30,0,1,3,0,0
28,0,1,3,0,0
24,0,1,3,0,0
30,0,1,3,0,0
29,0,1,3,0,0
33,0,1,3,0,0
32,0,1,3,0,0
31,0,1,3,0,0
31,0,1,3,0,0
35,0,4,3,0,0
34,0,1,3,0,0
32,0,4,3,0,0
33,0,4,3,0,0
24,0,1,3,0,0
28,0,1,3,0,0
25,0,1,3,0,0
24,0,1,3,0,0
25,0,1,3,0,0
34,0,1,3,0,0
24,0,4,3,0,0
34,0,3,3,0,0
30,0,4,3,0,0
33,0,1,3,0,0
32,0,1,3,0,0
28,0,4,3,0,0
29,1,1,3,,0
35,1,4,3,,0
27,0,1,3,0,0
30,0,1,3,0,0
30,0,1,3,0,0
31,0,1,3,0,0
31,0,1,3,0,0
29,0,1,3,0,0
32,0,4,3,0,0
34,0,1,3,0,0
35,0,1,3,0,0
26,1,1,3,,0
29,0,1,3,0,0
32,0,1,3,0,0
27,0,1,3,0,0
33,0,1,3,0,0
33,0,1,3,0,0
25,0,1,3,0,0
30,0,1,3,0,0
33,0,4,3,0,0
27,0,1,3,0,0
27,0,1,3,0,0
28,0,1,3,0,0
33,0,1,3,0,0
34,0,4,3,0,0
29,0,4,3,0,0
27,0,4,3,0,0
34,0,1,3,0,0
29,0,1,3,0,0
29,0,1,3,0,0
35,0,1,3,0,0
24,0,1,3,0,0
32,0,1,3,0,0
25,0,1,3,0,0
35,0,1,3,0,0
25,0,1,3,0,0
32,0,1,3,0,0
28,0,4,3,0,0
31,0,4,3,0,0
30,0,1,3,0,0
29,0,1,3,0,0
31,0,1,3,0,0
31,0,1,3,0,0
32,0,4,3,0,0
29,0,1,3,0,0
35,0,1,3,0,0
35,0,1,3,0,0
31,0,1,3,0,0
33,0,1,3,0,0
35,0,4,3,0,0
27,0,1,3,0,0
30,0,1,3,0,0
35,0,1,3,0,0
34,0,1,3,0,0
35,0,1,3,0,0
32,0,4,3,0,0
35,0,1,3,0,0
32,0,1,3,0,0
26,0,1,3,0,0
28,0,1,3,0,0
31,0,1,3,0,0
33,0,4,3,0,0
35,0,1,3,0,0
24,0,1,3,0,0
35,0,1,3,0,0
24,0,1,3,0,0
31,0,1,3,0,0
29,0,4,3,0,0
28,0,4,3,0,0
27,0,1,3,0,0
26,0,1,3,0,0
26,0,1,3,0,0
26,0,1,3,0,0
27,0,1,3,0,0
25,0,1,3,0,0
25,0,1,3,0,0
27,0,1,3,0,0
25,1,2,3,,0
27,0,1,3,0,0
24,0,4,3,0,0
27,0,1,3,0,0
28,0,1,3,0,0
26,0,1,3,0,0
35,0,1,3,0,0
26,0,1,3,0,0
24,0,1,3,0,0
24,0,1,3,0,0
35,0,1,3,0,0
35,0,1,3,0,0
35,0,4,3,0,0
24,0,4,3,0,0
24,0,4,3,0,0
27,0,1,3,0,0
33,0,1,3,0,0
28,0,1,3,0,0
29,0,1,3,0,0
29,1,1,3,,0
31,0,1,3,0,0
33,0,1,3,0,0
30,0,1,3,0,0
30,0,4,3,0,0
35,0,2,3,0,0
26,0,4,3,0,0
35,0,2,3,0,0
28,0,1,3,0,0
30,0,4,3,0,0
31,0,1,3,0,0
26,0,1,3,0,0
24,0,1,3,0,0
30,0,1,3,0,0
29,0,1,3,0,0
26,0,1,3,0,0
34,0,1,3,0,0
34,0,1,3,0,0
29,0,1,3,0,0
31,0,1,3,0,0
29,0,1,3,0,0
26,0,1,3,0,0
29,0,1,3,0,0
32,0,1,3,0,0
35,0,1,3,0,0
29,0,1,3,0,0
29,0,1,3,0,0
31,0,1,3,0,0
25,0,1,3,0,0
24,0,1,3,0,0
35,0,1,3,0,0
32,1,4,3,,0
26,0,1,3,0,0
34,0,1,3,0,0
26,0,1,3,0,0
30,0,1,3,0,0
29,0,1,3,0,0
33,0,1,3,0,0
33,0,1,3,0,0
27,0,1,3,0,0
33,0,1,3,0,0
33,0,1,3,0,0
34,1,4,3,,0
33,0,4,3,0,0
34,0,4,3,0,0
35,1,4,3,,0
25,0,4,3,0,0
26,0,4,3,0,0
33,0,4,3,0,0
24,0,4,3,0,0
26,0,4,3,0,0
25,0,4,3,0,0
25,0,4,3,0,0
35,0,4,3,0,0
32,0,4,3,0,0
32,0,4,3,0,0
32,0,4,3,0,0
32,0,4,3,0,0
29,0,4,3,0,0
29,0,4,3,0,0
29,0,4,3,0,0
35,0,4,3,0,0
35,1,4,3,,0
33,0,4,3,0,0
26,0,4,3,0,0
32,0,4,3,0,0
26,0,4,3,0,0
34,0,4,3,0,0
28,0,4,3,0,0
35,0,4,3,0,0
29,0,4,3,0,0
34,0,4,3,0,0
34,0,4,3,0,0
31,0,4,3,0,0
32,0,4,3,0,0
29,0,4,3,0,0
34,0,4,3,0,0
28,0,4,3,0,0
31,0,4,3,0,0
35,0,4,3,0,0
30,0,4,3,0,0
31,0,4,3,0,0
35,0,4,3,0,0
28,0,4,3,0,0
25,0,4,3,0,0
33,0,4,3,0,0
32,0,4,3,0,0
33,0,4,3,0,0
28,0,4,3,0,0
30,0,4,3,0,0
24,0,4,3,0,0
33,0,4,3,0,0
34,0,4,3,0,0
27,0,4,3,0,0
31,0,4,3,0,0
35,0,4,3,0,0
34,0,4,3,0,0
34,0,1,3,0,0
31,0,4,3,0,0
25,0,4,3,0,0
30,0,1,3,0,0
30,0,4,3,0,0
29,0,4,3,0,0
30,0,4,3,0,0
34,0,4,3,0,0
35,0,3,3,0,0
35,0,4,3,0,0
30,0,4,3,0,0
34,0,4,3,0,0
35,1,4,3,,0
29,0,4,3,0,0
27,0,4,3,0,0
24,0,4,3,0,0
32,0,4,3,0,0
33,0,4,3,0,0
25,0,4,3,0,0
30,0,4,3,0,0
33,0,1,3,0,0
32,0,4,3,0,0
24,0,4,3,0,0
26,0,4,3,0,0
35,0,4,3,0,0
24,0,4,3,0,0
31,1,4,3,,0
33,0,4,3,0,0
27,0,4,3,0,0
26,0,4,3,0,0
24,0,1,3,0,0
31,0,4,3,0,0
25,0,4,3,0,0
26,0,4,3,0,0
30,0,4,3,0,0
25,0,4,3,0,0
33,0,4,3,0,0
27,0,4,3,0,0
28,0,4,3,0,0
34,0,1,3,0,0
25,0,4,3,0,0
26,0,4,3,0,0
33,0,4,3,0,0
34,0,4,3,0,0
28,0,4,3,0,0
29,0,4,3,0,0
28,0,4,3,0,0
29,0,4,3,0,0
27,0,4,3,0,0
28,0,4,3,0,0
32,0,4,3,0,0
33,0,4,3,0,0
31,0,4,3,0,0
26,0,4,3,0,0
26,0,4,3,0,0
29,1,4,3,,0
35,0,4,3,0,0
29,0,4,3,0,0
26,0,4,3,0,0
28,0,4,3,0,0
25,0,4,3,0,0
32,0,4,3,0,0
27,0,4,3,0,0
28,0,4,3,0,0
25,0,4,3,0,0
25,0,4,3,0,0
26,0,4,3,0,0
24,0,4,3,0,0
35,1,4,3,,0
25,0,4,3,0,0
32,0,4,3,0,0
30,0,4,3,0,0
31,0,4,3,0,0
27,0,4,3,0,0
27,0,4,3,0,0
35,0,4,3,0,0
26,0,4,3,0,0
26,0,4,3,0,0
32,0,1,3,0,0
27,0,4,3,0,0
24,0,4,3,0,0
25,0,4,3,0,0
27,0,1,3,0,0
27,0,1,3,0,0
35,0,4,3,0,0
28,0,4,3,0,0
25,0,4,3,0,0
33,0,4,3,0,0
34,0,4,3,0,0
34,0,4,3,0,0
33,0,4,3,0,0
26,0,4,3,0,0
35,0,4,3,0,0
27,0,1,3,0,0
30,1,4,3,,0
30,0,4,3,0,0
25,0,4,3,0,0
27,0,4,3,0,0
26,0,4,3,0,0
32,0,4,3,0,0
27,0,4,3,0,0
34,0,4,3,0,0
34,0,4,3,0,0
26,0,4,3,0,0
34,0,4,3,0,0
29,0,4,3,0,0
34,0,4,3,0,0
24,0,4,3,0,0
35,0,4,3,0,0
29,0,4,3,0,0
27,0,4,3,0,0
26,0,4,3,0,0
34,0,4,3,0,0
31,0,4,3,0,0
24,0,1,3,0,0
30,0,4,3,0,0
25,0,4,3,0,0
32,0,4,3,0,0
26,0,4,3,0,0
32,0,4,3,0,0
24,0,4,3,0,0
26,0,4,3,0,0
26,0,4,3,0,0
25,0,4,3,0,0
31,0,4,3,0,0
24,0,4,3,0,0
24,0,4,3,0,0
28,0,4,3,0,0
35,0,1,3,0,0
28,0,4,3,0,0
26,0,4,3,0,0
31,0,4,3,0,0
28,0,4,3,0,0
32,0,4,3,0,0
24,0,4,3,0,0
34,0,4,3,0,0
